{
  "sync": {
    "user": "",
    "remote_ip": "",
    "remote_path": "",
    "local_path": ""
  },
  "record": {
    "save_path": "/data/records/",
    "remove_days": 2,
    "movil": "MOVIL1",
    "sources": [
      {
        "id": "CAM1",
        "input": "rtsp://192.168.1.100:554/user=admin_password=tlJwpbo6_channel=1_stream=0.sdp?real_stream",
        "week_days": "0,1,2,3,4,5,6",
        "start_hour": "04:00",
        "duration": "960",
        "segments": "900",
        "format": "mp4"
      }
    ]
  }
}